EDA/VHDL/subway/simulation/qsim/subway.msim.vcd
$comment
	File created using the following command:
		vcd file subway.msim.vcd -direction
$end
$date
	Thu Nov 10 23:11:11 2022
$end
$version
	ModelSim Version 10.1d
$end
$timescale
	1ps
$end
$scope module subway_vlg_vec_tst $end
$var reg 1 ! cancel $end
$var reg 1 " clk $end
$var reg 1 # insert_start $end
$var reg 4 $ money [3:0] $end
$var reg 3 % numbers [2:0] $end
$var reg 1 & select_start $end
$var reg 5 ' station [4:0] $end
$var wire 1 ( change_gate $end
$var wire 1 ) change_num [4] $end
$var wire 1 * change_num [3] $end
$var wire 1 + change_num [2] $end
$var wire 1 , change_num [1] $end
$var wire 1 - change_num [0] $end
$var wire 1 . ticket_gate $end
$var wire 1 / ticket_num [2] $end
$var wire 1 0 ticket_num [1] $end
$var wire 1 1 ticket_num [0] $end
$var wire 1 2 sampler $end
$scope module i1 $end
$var wire 1 3 gnd $end
$var wire 1 4 vcc $end
$var wire 1 5 unknown $end
$var tri1 1 6 devclrn $end
$var tri1 1 7 devpor $end
$var tri1 1 8 devoe $end
$var wire 1 9 ticket_num[0]~output_o $end
$var wire 1 : ticket_num[1]~output_o $end
$var wire 1 ; ticket_num[2]~output_o $end
$var wire 1 < change_num[0]~output_o $end
$var wire 1 = change_num[1]~output_o $end
$var wire 1 > change_num[2]~output_o $end
$var wire 1 ? change_num[3]~output_o $end
$var wire 1 @ change_num[4]~output_o $end
$var wire 1 A ticket_gate~output_o $end
$var wire 1 B change_gate~output_o $end
$var wire 1 C clk~input_o $end
$var wire 1 D clk~inputclkctrl_outclk $end
$var wire 1 E cancel~input_o $end
$var wire 1 F station[0]~input_o $end
$var wire 1 G station[1]~input_o $end
$var wire 1 H station[4]~input_o $end
$var wire 1 I price~0_combout $end
$var wire 1 J station[3]~input_o $end
$var wire 1 K Selector10~0_combout $end
$var wire 1 L select_start~input_o $end
$var wire 1 M sign~0_combout $end
$var wire 1 N sign~q $end
$var wire 1 O price[2]~9_combout $end
$var wire 1 P type_exit~q $end
$var wire 1 Q station[2]~input_o $end
$var wire 1 R type_exit~0_combout $end
$var wire 1 S type_exit~1_combout $end
$var wire 1 T insert_start~input_o $end
$var wire 1 U numbers[0]~input_o $end
$var wire 1 V numbers[2]~input_o $end
$var wire 1 W numbers[1]~input_o $end
$var wire 1 X Mux11~0_combout $end
$var wire 1 Y Selector16~0_combout $end
$var wire 1 Z type_num~q $end
$var wire 1 [ Selector44~2_combout $end
$var wire 1 \ Selector41~0_combout $end
$var wire 1 ] Selector44~11_combout $end
$var wire 1 ^ temp_enough~0_combout $end
$var wire 1 _ temp_enough~q $end
$var wire 1 ` Mux6~0_combout $end
$var wire 1 a price~3_combout $end
$var wire 1 b price~1_combout $end
$var wire 1 c price~2_combout $end
$var wire 1 d Selector14~0_combout $end
$var wire 1 e price~4_combout $end
$var wire 1 f Selector13~0_combout $end
$var wire 1 g price~5_combout $end
$var wire 1 h Mux6~1_combout $end
$var wire 1 i Mux6~2_combout $end
$var wire 1 j Selector20~2_combout $end
$var wire 1 k money[2]~input_o $end
$var wire 1 l money[0]~input_o $end
$var wire 1 m money[1]~input_o $end
$var wire 1 n money[3]~input_o $end
$var wire 1 o Selector44~0_combout $end
$var wire 1 p Mux16~0_combout $end
$var wire 1 q Selector29~0_combout $end
$var wire 1 r Mux15~0_combout $end
$var wire 1 s Selector28~0_combout $end
$var wire 1 t Mux14~0_combout $end
$var wire 1 u Selector27~0_combout $end
$var wire 1 v Mux13~0_combout $end
$var wire 1 w Selector26~0_combout $end
$var wire 1 x Add2~0_combout $end
$var wire 1 y Mux12~0_combout $end
$var wire 1 z Mux12~1_combout $end
$var wire 1 { Selector25~0_combout $end
$var wire 1 | process_0~1_combout $end
$var wire 1 } price~6_combout $end
$var wire 1 ~ price~7_combout $end
$var wire 1 !! Selector15~0_combout $end
$var wire 1 "! price~8_combout $end
$var wire 1 #! Selector21~0_combout $end
$var wire 1 $! Selector21~1_combout $end
$var wire 1 %! temp_number[0]~1_combout $end
$var wire 1 &! temp_number[0]~0_combout $end
$var wire 1 '! temp_number[0]~2_combout $end
$var wire 1 (! process_0~2_combout $end
$var wire 1 )! Selector22~0_combout $end
$var wire 1 *! Selector22~1_combout $end
$var wire 1 +! Mux9~1_combout $end
$var wire 1 ,! Mux9~0_combout $end
$var wire 1 -! Mux9~2_combout $end
$var wire 1 .! Mux10~0_combout $end
$var wire 1 /! Mux10~1_combout $end
$var wire 1 0! LessThan12~1_combout $end
$var wire 1 1! LessThan12~2_combout $end
$var wire 1 2! LessThan12~0_combout $end
$var wire 1 3! LessThan12~3_combout $end
$var wire 1 4! process_0~3_combout $end
$var wire 1 5! process_0~4_combout $end
$var wire 1 6! Selector42~0_combout $end
$var wire 1 7! change[3]~6_combout $end
$var wire 1 8! Selector33~4_combout $end
$var wire 1 9! x~0_combout $end
$var wire 1 :! x~1_combout $end
$var wire 1 ;! x~q $end
$var wire 1 <! Selector34~5_combout $end
$var wire 1 =! Selector34~6_combout $end
$var wire 1 >! Mux21~0_combout $end
$var wire 1 ?! Selector19~1_combout $end
$var wire 1 @! ~GND~combout $end
$var wire 1 A! num[2]~0_combout $end
$var wire 1 B! Selector39~0_combout $end
$var wire 1 C! num[1]~feeder_combout $end
$var wire 1 D! Selector34~7_combout $end
$var wire 1 E! Selector34~8_combout $end
$var wire 1 F! Add9~0_combout $end
$var wire 1 G! Selector34~2_combout $end
$var wire 1 H! Selector34~3_combout $end
$var wire 1 I! Selector9~0_combout $end
$var wire 1 J! Selector34~0_combout $end
$var wire 1 K! Add8~0_combout $end
$var wire 1 L! change~2_combout $end
$var wire 1 M! Add7~0_combout $end
$var wire 1 N! Add6~0_combout $end
$var wire 1 O! change~3_combout $end
$var wire 1 P! Selector34~1_combout $end
$var wire 1 Q! Selector34~4_combout $end
$var wire 1 R! Selector34~9_combout $end
$var wire 1 S! Add9~1 $end
$var wire 1 T! Add9~2_combout $end
$var wire 1 U! Add8~1 $end
$var wire 1 V! Add8~2_combout $end
$var wire 1 W! change[3]~5_combout $end
$var wire 1 X! change[3]~4_combout $end
$var wire 1 Y! Add7~1 $end
$var wire 1 Z! Add7~2_combout $end
$var wire 1 [! Selector33~2_combout $end
$var wire 1 \! Add6~1 $end
$var wire 1 ]! Add6~2_combout $end
$var wire 1 ^! Selector33~3_combout $end
$var wire 1 _! Selector33~5_combout $end
$var wire 1 `! Selector33~6_combout $end
$var wire 1 a! change[3]~7_combout $end
$var wire 1 b! change[3]~10_combout $end
$var wire 1 c! change[3]~8_combout $end
$var wire 1 d! change[3]~9_combout $end
$var wire 1 e! Selector32~2_combout $end
$var wire 1 f! Add9~3 $end
$var wire 1 g! Add9~4_combout $end
$var wire 1 h! Add8~3 $end
$var wire 1 i! Add8~4_combout $end
$var wire 1 j! Add7~3 $end
$var wire 1 k! Add7~4_combout $end
$var wire 1 l! Add6~3 $end
$var wire 1 m! Add6~4_combout $end
$var wire 1 n! Add5~1_cout $end
$var wire 1 o! Add5~3_cout $end
$var wire 1 p! Add5~4_combout $end
$var wire 1 q! Selector32~4_combout $end
$var wire 1 r! Selector32~7_combout $end
$var wire 1 s! Selector32~3_combout $end
$var wire 1 t! Selector32~5_combout $end
$var wire 1 u! Selector32~6_combout $end
$var wire 1 v! Add9~5 $end
$var wire 1 w! Add9~6_combout $end
$var wire 1 x! Selector31~4_combout $end
$var wire 1 y! Selector31~5_combout $end
$var wire 1 z! Add8~5 $end
$var wire 1 {! Add8~6_combout $end
$var wire 1 |! Add7~5 $end
$var wire 1 }! Add7~6_combout $end
$var wire 1 ~! Selector31~2_combout $end
$var wire 1 !" Add6~5 $end
$var wire 1 "" Add6~6_combout $end
$var wire 1 #" Add5~5 $end
$var wire 1 $" Add5~6_combout $end
$var wire 1 %" Selector31~3_combout $end
$var wire 1 &" Selector31~6_combout $end
$var wire 1 '" Selector31~7_combout $end
$var wire 1 (" LessThan14~0_combout $end
$var wire 1 )" LessThan14~1_combout $end
$var wire 1 *" Selector18~0_combout $end
$var wire 1 +" Selector18~1_combout $end
$var wire 1 ," Selector8~0_combout $end
$var wire 1 -" temp_number[2]~4_combout $end
$var wire 1 ." temp_number[2]~5_combout $end
$var wire 1 /" temp_number[2]~6_combout $end
$var wire 1 0" Selector41~1_combout $end
$var wire 1 1" Selector37~0_combout $end
$var wire 1 2" y~0_combout $end
$var wire 1 3" y~q $end
$var wire 1 4" process_0~0_combout $end
$var wire 1 5" temp_number[0]~3_combout $end
$var wire 1 6" Selector41~5_combout $end
$var wire 1 7" Selector41~3_combout $end
$var wire 1 8" process_0~5_combout $end
$var wire 1 9" Selector41~2_combout $end
$var wire 1 :" Selector45~0_combout $end
$var wire 1 ;" Selector45~1_combout $end
$var wire 1 <" state.change_state~q $end
$var wire 1 =" Selector44~5_combout $end
$var wire 1 >" Selector44~6_combout $end
$var wire 1 ?" Selector44~4_combout $end
$var wire 1 @" Selector44~7_combout $end
$var wire 1 A" Selector44~8_combout $end
$var wire 1 B" Selector44~9_combout $end
$var wire 1 C" Selector43~0_combout $end
$var wire 1 D" state.insert_state~q $end
$var wire 1 E" Selector44~1_combout $end
$var wire 1 F" state.ticket_state~0_combout $end
$var wire 1 G" state.ticket_state~q $end
$var wire 1 H" Selector44~10_combout $end
$var wire 1 I" Add9~7 $end
$var wire 1 J" Add9~8_combout $end
$var wire 1 K" Add8~7 $end
$var wire 1 L" Add8~8_combout $end
$var wire 1 M" Add7~7 $end
$var wire 1 N" Add7~8_combout $end
$var wire 1 O" Selector30~8_combout $end
$var wire 1 P" Selector30~6_combout $end
$var wire 1 Q" Selector30~2_combout $end
$var wire 1 R" Selector30~3_combout $end
$var wire 1 S" Add6~7 $end
$var wire 1 T" Add6~8_combout $end
$var wire 1 U" Add5~7 $end
$var wire 1 V" Add5~8_combout $end
$var wire 1 W" Selector30~4_combout $end
$var wire 1 X" Selector30~5_combout $end
$var wire 1 Y" Selector30~7_combout $end
$var wire 1 Z" Selector41~6_combout $end
$var wire 1 [" Selector41~4_combout $end
$var wire 1 \" Selector41~7_combout $end
$var wire 1 ]" state.init_state~q $end
$var wire 1 ^" Selector44~3_combout $end
$var wire 1 _" Selector42~1_combout $end
$var wire 1 `" state.select_state~q $end
$var wire 1 a" Selector19~0_combout $end
$var wire 1 b" temp_number[0]~feeder_combout $end
$var wire 1 c" temp_number[0]~_wirecell_combout $end
$var wire 1 d" Selector2~0_combout $end
$var wire 1 e" ticket_num[2]~0_combout $end
$var wire 1 f" ticket_num[0]~reg0_q $end
$var wire 1 g" Selector1~0_combout $end
$var wire 1 h" ticket_num[1]~reg0_q $end
$var wire 1 i" Selector0~0_combout $end
$var wire 1 j" ticket_num[2]~reg0_q $end
$var wire 1 k" Selector7~0_combout $end
$var wire 1 l" change_gate~0_combout $end
$var wire 1 m" change_num[0]~reg0_q $end
$var wire 1 n" Selector6~0_combout $end
$var wire 1 o" change_num[1]~reg0_q $end
$var wire 1 p" Selector5~0_combout $end
$var wire 1 q" change_num[2]~reg0_q $end
$var wire 1 r" Selector4~0_combout $end
$var wire 1 s" change_num[3]~reg0_q $end
$var wire 1 t" Selector3~0_combout $end
$var wire 1 u" change_num[4]~reg0_q $end
$var wire 1 v" ticket_gate~reg0feeder_combout $end
$var wire 1 w" ticket_gate~reg0_q $end
$var wire 1 x" change_gate~reg0_q $end
$var wire 1 y" temp_number [2] $end
$var wire 1 z" temp_number [1] $end
$var wire 1 {" temp_number [0] $end
$var wire 1 |" num [2] $end
$var wire 1 }" num [1] $end
$var wire 1 ~" num [0] $end
$var wire 1 !# price [4] $end
$var wire 1 "# price [3] $end
$var wire 1 ## price [2] $end
$var wire 1 $# price [1] $end
$var wire 1 %# price [0] $end
$var wire 1 &# total_insert [4] $end
$var wire 1 '# total_insert [3] $end
$var wire 1 (# total_insert [2] $end
$var wire 1 )# total_insert [1] $end
$var wire 1 *# total_insert [0] $end
$var wire 1 +# change [4] $end
$var wire 1 ,# change [3] $end
$var wire 1 -# change [2] $end
$var wire 1 .# change [1] $end
$var wire 1 /# change [0] $end
$var wire 1 0# total_price [4] $end
$var wire 1 1# total_price [3] $end
$var wire 1 2# total_price [2] $end
$var wire 1 3# total_price [1] $end
$var wire 1 4# total_price [0] $end
$upscope $end
$upscope $end
$enddefinitions $end
#0
$dumpvars
0!
0"
0#
b0 $
b0 %
0&
b0 '
0(
0-
0,
0+
0*
0)
0.
01
00
0/
x2
03
14
x5
16
17
18
09
0:
0;
0<
0=
0>
0?
0@
0A
0B
0C
0D
0E
0F
0G
0H
1I
0J
0K
0L
0M
0N
1O
0P
0Q
0R
0S
0T
0U
0V
0W
0X
0Y
0Z
0[
0\
0]
1^
0_
0`
0a
0b
1c
0d
0e
0f
0g
0h
0i
1j
0k
0l
0m
0n
0o
0p
0q
0r
0s
0t
0u
0v
0w
0x
0y
0z
0{
0|
0}
1~
0!!
0"!
0#!
0$!
1%!
0&!
0'!
0(!
0)!
0*!
0+!
0,!
0-!
0.!
0/!
00!
01!
02!
03!
04!
15!
06!
07!
08!
09!
0:!
0;!
0<!
0=!
0>!
1?!
0@!
0A!
0B!
0C!
0D!
0E!
1F!
0G!
0H!
0I!
0J!
0K!
0L!
0M!
0N!
0O!
0P!
0Q!
0R!
0S!
1T!
1U!
0V!
0W!
0X!
1Y!
0Z!
0[!
1\!
0]!
0^!
0_!
0`!
1a!
1b!
1c!
1d!
0e!
1f!
1g!
0h!
0i!
0j!
0k!
0l!
0m!
1n!
0o!
0p!
1q!
0r!
0s!
0t!
0u!
0v!
1w!
0x!
0y!
1z!
0{!
1|!
0}!
0~!
1!"
0""
1#"
0$"
0%"
0&"
0'"
0("
0)"
0*"
0+"
0,"
0-"
0."
0/"
10"
11"
02"
03"
04"
15"
06"
07"
18"
09"
0:"
0;"
0<"
1="
0>"
1?"
0@"
0A"
1B"
0C"
0D"
0E"
0F"
0G"
0H"
1I"
1J"
0K"
0L"
0M"
0N"
0O"
0P"
1Q"
1R"
0S"
0T"
0U"
0V"
0W"
0X"
0Y"
0Z"
0["
0\"
0]"
0^"
0_"
0`"
0a"
0b"
1c"
0d"
1e"
0f"
0g"
0h"
0i"
0j"
0k"
1l"
0m"
0n"
0o"
0p"
0q"
0r"
0s"
0t"
0u"
0v"
0w"
0x"
0{"
0z"
0y"
0~"
0}"
0|"
0%#
0$#
0##
z"#
z!#
0*#
0)#
0(#
0'#
0&#
0/#
0.#
0-#
0,#
0+#
04#
03#
02#
01#
00#
$end
#10000
1"
1C
1D
02
1N
0l"
0e"
01"
1=!
1&!
0j
0^
0O
1M
1E!
0d!
1'!
05"
#20000
0"
0C
0D
12
#30000
1"
1C
1D
02
#40000
0"
0C
0D
12
#50000
1&
1"
1L
1C
1D
02
1^"
0M
1_"
0?"
17"
0B"
1["
1\"
#60000
0"
0C
0D
12
#70000
0&
1"
0L
1C
1D
02
0^"
1M
0_"
1?"
07"
1B"
0["
0\"
1`"
1]"
0N
1a"
1_"
1["
1O
0M
1b"
1\"
#80000
0"
0C
0D
12
#90000
1"
1C
1D
02
#100000
0"
0C
0D
12
#110000
b1000 '
b1010 '
1"
1G
1J
1C
1D
02
1}
0I
0~
0c
1R
1S
1K
1e
1d
1j
1#!
1$!
#120000
0"
0C
0D
12
#130000
b10 '
b0 '
1"
0G
0J
1C
1D
02
0}
1I
1~
0R
1c
0S
0K
1"!
1!!
0"!
0!!
0e
0d
0j
1*!
0*!
0#!
0$!
1$#
1P
1o!
1l!
1]!
1j!
1Z!
1h!
1V!
1e
1d
1b
1R
0#"
1p!
0!"
1m!
0o!
0|!
1k!
0l!
0]!
1[!
0z!
1i!
0j!
0Z!
1#!
1S
1K
1U"
1$"
1S"
1""
1#"
1M"
1}!
1!"
1o!
1^!
1K"
1{!
1s!
1|!
1l!
1]!
1$!
1j
1V"
1T"
0U"
1N"
0S"
1~!
0p!
1L"
0M"
1t!
0m!
0o!
1W"
1O"
1%"
1P"
#140000
0"
0C
0D
12
#150000
b10 %
b11 %
1"
1U
1W
1C
1D
02
1+!
0%!
1h
1`
1X
1B!
1)!
0$!
1-!
0'!
1Y
1+"
1C!
1*!
15"
#160000
0"
0C
0D
12
#170000
b1 %
b0 %
1"
0U
0W
1C
1D
02
0+!
1%!
0h
0`
0X
0B!
0)!
1$!
0-!
1'!
0Y
0+"
0C!
0*!
05"
1{"
1z"
1}"
1~"
13#
12#
1Z
0c"
14"
00"
1X!
1W!
1L!
11!
1-!
13!
0j
1Y
0="
0q!
14!
0t!
05!
08"
#180000
0"
0C
0D
12
#190000
1#
1"
1T
1C
1D
02
1[
17"
1\
0?"
16!
0B"
1C"
0_"
#200000
0"
0C
0D
12
#210000
0#
1"
0T
1C
1D
02
0[
07"
0\
1?"
06!
1B"
0C"
1_"
0`"
1D"
0a"
0_"
0=!
0d
0Y
0O
0K
1C"
1r!
1^
0b"
#220000
0"
0C
0D
12
#230000
b1000 $
b1010 $
1"
1m
1n
1C
1D
02
0a!
1o
17!
1v
1A"
1(!
1w
1r
1y!
1t!
18!
04!
01!
1s
1&"
1_!
15!
1'"
1`!
1E"
19"
18"
1]
0A"
0?"
0B"
1F"
0C"
#240000
1!
0"
1E
0C
0D
12
0E"
1>"
08"
0b!
1>!
0F"
1A"
1?"
1:"
1d!
0E!
1;"
#250000
b10 $
b0 $
1"
0m
0n
1C
1D
02
1a!
0o
07!
0v
0r
1b!
0A"
09"
0>!
0(!
0w
0y!
0t!
08!
11!
0s
0d!
1B"
0:"
1E!
14!
0&"
0_!
1C"
0;"
05!
0'"
0`!
0]
0D"
1<"
1,#
1.#
1'#
1)#
1_
0C"
0>"
1="
0E!
0^
1r"
1n"
1l"
1Z"
1H"
1@"
1:"
1<!
19!
17!
1("
0I"
0w!
0f!
0T!
0K"
0{!
1y!
1(!
0h!
0V!
18!
1r
15!
0\"
1X"
1A"
0Q"
1t!
1e!
0Z"
1)"
1I!
0<!
0J"
1v!
0g!
0L"
0}!
04!
1z!
0i!
1j!
1Z!
01!
1Y"
0B"
0R"
1u!
1\"
0="
1;"
1:!
0@"
1d!
1Q!
0P"
1w!
0t!
0N"
0""
1{!
0|!
0l!
0]!
1B"
0A"
1R!
0Y"
1&"
0u!
0T"
0O"
0%"
0$"
1m!
1o!
0^!
1'"
0V"
1q!
#260000
0!
0"
0E
0C
0D
12
18"
#270000
1"
1C
1D
02
0.#
1/#
1;!
1x"
1s"
1o"
0n"
1f!
1T!
1k"
1S!
0F!
0I!
1<!
0:!
1B
1?
1=
1(
1*
1,
0v!
1g!
1_!
0f!
0T!
0Q!
1@"
0d!
0w!
1t!
1`!
1v!
0g!
0_!
1A"
0&"
1u!
1w!
0t!
0`!
0'"
1&"
0u!
1'"
#280000
0"
0C
0D
12
#290000
1"
1C
1D
02
0;!
0x"
0o"
1m"
1I!
0<!
1:!
0B
0=
1<
0(
0,
1-
0@"
1d!
0R!
0A"
#300000
0"
0C
0D
12
#310000
1"
1C
1D
02
0/#
1;!
1x"
0k"
0S!
1F!
0I!
1<!
0:!
1B
1(
1f!
1T!
1@"
0d!
0v!
1g!
1_!
1A"
0w!
1t!
1`!
0&"
1u!
0'"
#320000
0"
0C
0D
12
#330000
1"
1C
1D
02
0;!
0x"
0m"
1I!
0<!
1:!
0B
0<
0(
0-
0@"
1d!
1Q!
0A"
1R!
#340000
0"
0C
0D
12
#350000
1"
1C
1D
02
0,#
1-#
1.#
1/#
1;!
1x"
0r"
1I"
1w!
1p"
1v!
0g!
1n"
0f!
0T!
1k"
1S!
0F!
0I!
1<!
0:!
1B
1(
1J"
1&"
0I"
0w!
0t!
1g!
0_!
1T!
0Q!
1@"
0d!
1P"
1'"
0J"
0&"
0u!
1t!
0`!
1_!
1A"
1Y"
0P"
0'"
1u!
1`!
0Y"
#360000
0"
0C
0D
12
#370000
1"
1C
1D
02
0;!
0x"
0s"
1q"
1o"
1m"
1I!
0<!
1:!
0B
0?
1>
1=
1<
0(
0*
1+
1,
1-
0@"
1d!
0R!
0A"
#380000
0"
0C
0D
12
#390000
1"
1C
1D
02
0/#
1;!
1x"
0k"
0S!
1F!
0I!
1<!
0:!
1B
1(
0T!
1@"
0d!
0_!
1A"
0`!
#400000
0"
0C
0D
12
#410000
1"
1C
1D
02
0;!
0x"
0m"
1I!
0<!
1:!
0B
0<
0(
0-
0@"
1d!
1Q!
0A"
1R!
#420000
0"
0C
0D
12
#430000
1"
1C
1D
02
0.#
1/#
1;!
1x"
0n"
1f!
1T!
1k"
1S!
0F!
0I!
1<!
0:!
1B
1(
0g!
1_!
0f!
0T!
0Q!
1@"
0d!
0t!
1`!
1g!
0_!
1A"
0u!
1t!
0`!
1u!
#440000
0"
0C
0D
12
#450000
1"
1C
1D
02
0;!
0x"
0o"
1m"
1I!
0<!
1:!
0B
0=
1<
0(
0,
1-
0@"
1d!
0R!
0A"
#460000
0"
0C
0D
12
#470000
1"
1C
1D
02
0/#
1;!
1x"
0k"
0S!
1F!
0I!
1<!
0:!
1B
1(
1f!
1T!
1@"
0d!
0g!
1_!
1A"
0t!
1`!
0u!
#480000
0"
0C
0D
12
#490000
1"
1C
1D
02
0;!
0x"
0m"
1I!
0<!
1:!
0B
0<
0(
0-
0@"
1d!
1Q!
0A"
1R!
#500000
0"
0C
0D
12
#510000
1"
1C
1D
02
0-#
1.#
1/#
1;!
1x"
0p"
0v!
1g!
1n"
0f!
0T!
1k"
1S!
0F!
0I!
1<!
0:!
1B
1(
1I"
1w!
1t!
1v!
0g!
0_!
1T!
0Q!
1@"
0d!
1J"
1&"
1u!
0I"
0w!
0t!
0`!
1_!
1A"
1P"
1'"
0J"
0&"
0u!
1`!
1Y"
0P"
0'"
0Y"
#520000
0"
0C
0D
12
#530000
1"
1C
1D
02
0;!
0x"
0q"
1o"
1m"
1I!
0<!
1:!
0B
0>
1=
1<
0(
0+
1,
1-
0@"
1d!
0R!
0A"
#540000
0"
0C
0D
12
#550000
1"
1C
1D
02
0/#
1;!
1x"
0k"
0S!
1F!
0I!
1<!
0:!
1B
1(
0T!
1@"
0d!
0_!
1A"
0`!
#560000
0"
0C
0D
12
#570000
1"
1C
1D
02
0;!
0x"
0m"
1I!
0<!
1:!
0B
0<
0(
0-
0@"
1d!
1Q!
0A"
1R!
#580000
0"
0C
0D
12
#590000
1"
1C
1D
02
0.#
1/#
1;!
1x"
0n"
1f!
1T!
1k"
1S!
0F!
0I!
1<!
0:!
1B
1(
0v!
1g!
1_!
0f!
0T!
0Q!
1@"
0d!
1I"
1w!
1t!
1`!
1v!
0g!
0_!
1A"
1J"
1&"
1u!
0I"
0w!
0t!
0`!
1P"
1'"
0J"
0&"
0u!
1Y"
0P"
0'"
0Y"
#600000
0"
0C
0D
12
#610000
1"
1C
1D
02
0;!
0x"
0o"
1m"
1I!
0<!
1:!
0B
0=
1<
0(
0,
1-
0@"
1d!
0R!
0A"
#620000
0"
0C
0D
12
#630000
1"
1C
1D
02
0/#
1;!
1x"
0k"
0("
0S!
1F!
0I!
1<!
0:!
1B
1(
1Z"
0)"
1f!
1T!
1@"
0d!
0\"
1="
0;"
1:!
0v!
1g!
1_!
1A"
0B"
1I"
1w!
1t!
1`!
1J"
1&"
1u!
1P"
1'"
1Y"
#640000
0"
0C
0D
12
#650000
1"
1C
1D
02
0]"
0<"
0x"
0m"
1e"
0["
11"
09!
0&!
1j
1^
1O
0Z"
0H"
0@"
0="
1;"
0:"
0'"
0r!
0`!
0<!
07!
0B
0<
0(
0-
0:!
1d!
0'!
0Y"
0u!
0A"
1B"
0;"
0W"
1Q"
0e!
15"
1R"
0X"
#660000
0"
0C
0D
12
#670000
1"
1C
1D
02
0{"
0z"
0}"
0~"
0;!
03#
02#
0'#
0)#
0$#
0_
0Z
0P
1N
1c"
04"
10"
0X!
0W!
1O!
0L!
0-!
03!
0{!
0y!
0(!
08!
0r
0o!
1]!
0j!
0Z!
0e
0j
0b
0R
0l"
0e"
01"
1=!
1&!
0^
0O
1M
1="
0P"
1%"
0~!
0s!
1^!
0[!
0O!
1M"
1}!
0&"
0_!
1p!
1|!
0k!
0]!
0#!
0S
1E!
0d!
1'!
0%"
0t!
0^!
1N"
1""
0M"
0}!
0m!
0$!
05"
1T"
1$"
0N"
0""
0p!
1V"
0T"
0$"
1W"
0V"
0W"
#680000
0"
0C
0D
12
#690000
1"
1C
1D
02
#700000
0"
0C
0D
12
#710000
1"
1C
1D
02
#720000
0"
0C
0D
12
#730000
1"
1C
1D
02
#740000
0"
0C
0D
12
#750000
1"
1C
1D
02
#760000
0"
0C
0D
12
#770000
1"
1C
1D
02
#780000
0"
0C
0D
12
#790000
1"
1C
1D
02
#800000
0"
0C
0D
12
#810000
1"
1C
1D
02
#820000
0"
0C
0D
12
#830000
1"
1C
1D
02
#840000
0"
0C
0D
12
#850000
1"
1C
1D
02
#860000
0"
0C
0D
12
#870000
1"
1C
1D
02
#880000
0"
0C
0D
12
#890000
1"
1C
1D
02
#900000
0"
0C
0D
12
#910000
1"
1C
1D
02
#920000
0"
0C
0D
12
#930000
1"
1C
1D
02
#940000
0"
0C
0D
12
#950000
1"
1C
1D
02
#960000
0"
0C
0D
12
#970000
1"
1C
1D
02
#980000
0"
0C
0D
12
#990000
1"
1C
1D
02
